﻿{
    "sourceTemplateId": "{FFB1DA32-2764-47DB-83B0-95B843546A7E}",
    "sourceTemplateName": "Form",
    "destTemplateId": "{6ABEE1F2-4AB4-47F0-AD8B-BDB36F37F64C}",
    "destTemplateName": "Form",
    "baseTemplateMetadataFileName":  "BaseTemplate.json", 
    "fields": {
        "newFields": [
            {
                "fieldType": "shared",
                "destFieldId": "{589A7ADE-81D4-4A60-B9E2-7EAF6AE8A563}",
                "value": "{3A4DF9C0-7C82-4415-90C3-25440257756D}"
            },
            {
                "fieldType": "shared",
                "destFieldId": "{FCE03B41-4CBB-4F7F-920F-FF04F12FA896}",
                "value": "jquery-2.1.3.min.js|jquery.validate.min.js|jquery.validate.unobtrusive.min.js|jquery.unobtrusive-ajax.min.js|form.validate.js|form.tracking.js|form.conditions.js"
            },
            {
                "fieldType": "shared",
                "destFieldId": "{9EB86F19-2E5D-48DB-9795-0EE4868EFF11}",
                "value": "1"
            }
        ],
        "convertedFields": [
            {
                "fieldConverter": "TrackingConverter",
                "sourceFieldId": "{B0A67B2A-8B07-4E0B-8809-69F751709806}", // Tracking
                "destFieldId": "{D99833EA-238A-4505-90EF-C69BF3EBA946}"
            },
            {
                "fieldConverter": "",
                "sourceFieldId": "{0F110210-9EA9-47C6-93AF-7DCE616C3602}", // Custom CSS Class
                "destFieldId": "{7ABAA3F6-6EC0-4B65-A463-7919BFAE55AA}" // CSS Class
            }
        ] 
    }
}
