﻿{
	"sourceMappingFieldValue": "{4123AF74-93E6-48A7-8813-A02D60EE616A}", // Single-Line Text No Autocomplete
	"destTemplateId": "{826188DE-561C-4095-96EB-A4F9EF48D0F3}",
	"destTemplateName": "Single Line Text No Autocomplete",
	"baseTemplateMetadataFileName": "Input.json",
	"fields": {
		"newFields": [
			{
				"fieldType": "shared",
				"destFieldId": "{589A7ADE-81D4-4A60-B9E2-7EAF6AE8A563}", // Field Type
				"value": "{4EE89EA7-CEFE-4C8E-8532-467EF64591FC}"
			}
		],
		"convertedFields": [
			{
				"fieldConverter": "",
				"sourceFieldId": "{358E7AA0-E3E6-4EF6-92DF-EC1301737B50}", // Parameters
				"destFields": [

				]
			},
			{
				"fieldConverter": "",
				"sourceFieldId": "{26CDC7C2-5307-4591-A7F9-5C034A05630A}", // Localized Parameters
				"destFields": [

				]
			}
		]
	}
}
