﻿{
    "sourceMappingFieldValue": "{6353E864-D3AE-4FF9-88DD-60B0F779A44A}", // Single-Line Text
    "destTemplateId": "{0908030B-4564-42EA-A6FA-C7A5A2D921A8}",
    "destTemplateName": "SingleLineText",
    "baseTemplateMetadataFileName": "Input.json",
    "fields": {
        "newFields": [
            {
                "fieldType": "shared",
                "destFieldId": "{589A7ADE-81D4-4A60-B9E2-7EAF6AE8A563}", // Field Type
                "value": "{4EE89EA7-CEFE-4C8E-8532-467EF64591FC}"
            }
        ],
        "convertedFields": [
            {
                "fieldConverter": "",
                "sourceFieldId": "{358E7AA0-E3E6-4EF6-92DF-EC1301737B50}", // Parameters
                "destFields": [

                ]
            },
            {
                "fieldConverter": "",
                "sourceFieldId": "{26CDC7C2-5307-4591-A7F9-5C034A05630A}", // Localized Parameters
                "destFields": [

                ]
            }
        ]
    }
}
